C:\Users\Marijn-PC\Documents\Projects\lythrionnetwork\LythrionHub\src\main\java\net\planckton\hub\crate\animation\CommonCrateAnimation.java
C:\Users\Marijn-PC\Documents\Projects\lythrionnetwork\LythrionHub\src\main\java\net\planckton\hub\LythrionHub.java
C:\Users\Marijn-PC\Documents\Projects\lythrionnetwork\LythrionHub\src\main\java\net\planckton\hub\windows\CrateWindow.java
C:\Users\Marijn-PC\Documents\Projects\lythrionnetwork\LythrionHub\src\main\java\net\planckton\hub\crate\CrateManager.java
C:\Users\Marijn-PC\Documents\Projects\lythrionnetwork\LythrionHub\src\main\java\net\planckton\hub\playmode\PlayModeHub.java
C:\Users\Marijn-PC\Documents\Projects\lythrionnetwork\LythrionHub\src\main\java\net\planckton\hub\windows\GameSelectorWindow.java
C:\Users\Marijn-PC\Documents\Projects\lythrionnetwork\LythrionHub\src\main\java\net\planckton\hub\crate\animation\CrateAnimation.java
C:\Users\Marijn-PC\Documents\Projects\lythrionnetwork\LythrionHub\src\main\java\net\planckton\hub\crate\types\CommonCrate.java
C:\Users\Marijn-PC\Documents\Projects\lythrionnetwork\LythrionHub\src\main\java\net\planckton\hub\crate\types\Crate.java
C:\Users\Marijn-PC\Documents\Projects\lythrionnetwork\LythrionHub\src\main\java\net\planckton\hub\windows\PlayerProfileWindow.java
C:\Users\Marijn-PC\Documents\Projects\lythrionnetwork\LythrionHub\src\main\java\net\planckton\hub\listener\WorldListener.java
C:\Users\Marijn-PC\Documents\Projects\lythrionnetwork\LythrionHub\src\main\java\net\planckton\hub\windows\LobbyWindow.java
C:\Users\Marijn-PC\Documents\Projects\lythrionnetwork\LythrionHub\src\main\java\net\planckton\hub\crate\animation\CommonCrateOpenAnimation.java
